…
      $others$spatial
      character(0)
      
      
      attr(,"class")
      [1] "key_tbl" "list"   

---

    Code
      (check_res <- check_key(lga, covid))
    Output
      $paired
      # A tibble: 78 x 2
         spatial        temporal      
         <chr>          <chr>         
       1 Alpine (S)     Alpine (S)    
       2 Ararat (RC)    Ararat (RC)   
       3 Ballarat (C)   Ballarat (C)  
       4 Banyule (C)    Banyule (C)   
       5 Bass Coast (S) Bass Coast (S)
       6 Baw Baw (S)    Baw Baw (S)   
       7 Bayside (C)    Bayside (C)   
       8 Benalla (RC)   Benalla (RC)  
       9 Boroondara (C) Boroondara (C)
      10 Brimbank (C)   Brimbank (C)  
      # i 68 more rows
…
