Accessors of the cubble class — [.spatial_cubble_df • cubble
…
climate_mel[1:3] # tibble
#> # A tibble: 3 × 3
#>   id           long   lat
#>   <chr>       <dbl> <dbl>
#> 1 ASN00086038  145. -37.7
#> 2 ASN00086077  145. -38.0
#> 3 ASN00086282  145. -37.7
long[2:5] # tibble
#> # A tibble: 30 × 4
#>    date        prcp  tmax  tmin
#>    <date>     <dbl> <dbl> <dbl>
#>  1 2020-01-01     0  26.8  11  
#>  2 2020-01-02     0  26.3  12.2
#>  3 2020-01-03     0  34.5  12.7
#>  4 2020-01-04     0  29.3  18.8
#>  5 2020-01-05    18  16.1  12.5
#>  6 2020-01-06   104  17.5  11.1
#>  7 2020-01-07    14  20.7  12.1
#>  8 2020-01-08     0  26.4  16.4
#>  9 2020-01-09     0  33.1  17.4
#> 10 2020-01-10     0  34    19.6
#> # ℹ 20 more rows
climate_mel[1] # still tibble
#> # A tibble: 3 × 1
#>   id         
#>   <chr>      
#> 1 ASN00086038
#> 2 ASN00086077
#> 3 ASN00086282
long[1] # and still tibble
#> # A tibble: 30 × 1
#>    id         
#>    <chr>      
#>  1 ASN00086038
#>  2 ASN00086038
#>  3 ASN00086038
#>  4 ASN00086038
#>  5 ASN00086038
#>  6 ASN00086038
#>  7 ASN00086038
#>  8 ASN00086038
#>  9 ASN00086038
#> 10 ASN00086038
#> # ℹ 20 more rows
…
