Check on key when create cubble from two components (spatial/temporal) — check_key • cubble
…
# make_cubble() will prompt to use check_key if there are key mis-match:
colnames(lga) <- c("lga", "geometry")
cb <- make_cubble(spatial = lga, temporal = covid)
#> Warning: st_centroid assumes attributes are constant over geometries
#> ! Some sites in the spatial table don't have temporal information
#> ! Some sites in the temporal table don't have spatial information
#> ! Use `check_key()` to check on the unmatched key
#> The cubble is created only with sites having both spatial and
#> temporal information
(check_res <- check_key(lga, covid))
#> $paired
#> # A tibble: 78 × 2
#>    spatial        temporal      
#>    <chr>          <chr>         
#>  1 Alpine (S)     Alpine (S)    
#>  2 Ararat (RC)    Ararat (RC)   
#>  3 Ballarat (C)   Ballarat (C)  
#>  4 Banyule (C)    Banyule (C)   
#>  5 Bass Coast (S) Bass Coast (S)
#>  6 Baw Baw (S)    Baw Baw (S)   
#>  7 Bayside (C)    Bayside (C)   
#>  8 Benalla (RC)   Benalla (RC)  
#>  9 Boroondara (C) Boroondara (C)
#> 10 Brimbank (C)   Brimbank (C)  
#> # ℹ 68 more rows
…
