0. Creating a cubble from data in the wild • cubble
…
(latlon_ref <- tibble::tibble(id = c("sydney", "melbourne"),
                         lat = c(-33.8675, -37.8136),
                         long = c(151.2070, 144.9631)))
#> # A tibble: 2 × 3
#>   id          lat  long
#>   <chr>     <dbl> <dbl>
#> 1 sydney    -33.9  151.
#> 2 melbourne -37.8  145.

Usually, you also need a master list with all the candidate stations to choose from. Here we use the stations saved in the built-in data, aus_climate.

(cand <- aus_climate %>% 
   as_tibble() %>% 
   select(id, lat, long, elev, name, wmo_id))
#> # A tibble: 85 × 6
#>    id            lat  long  elev name                   wmo_id
#>    <chr>       <dbl> <dbl> <dbl> <chr>                   <dbl>
#>  1 ASN00009021 -31.9  116.  15.4 perth airport           94610
#>  2 ASN00010311 -31.9  117. 179   york                    94623
#>  3 ASN00010614 -32.9  117. 338   narrogin                94627
#>  4 ASN00014015 -12.4  131.  30.4 darwin airport          94120
#>  5 ASN00015131 -17.6  134. 220   elliott                 94236
#>  6 ASN00016065 -30.4  137.  76   andamooka               95660
#>  7 ASN00023034 -35.0  139.   2   adelaide airport        94672
#>  8 ASN00023373 -34.5  139. 275   nuriootpa viticultural  94681
#>  9 ASN00024024 -34.4  141.  30.1 loxton research centre  94682
#> 10 ASN00024048 -34.2  141.  31.5 renmark aero            95687
#> # … with 75 more rows
…
