0. Import data as a cubble • cubble
…
A cubble from tsibble

Suppose we have a tsibble from climate_flat:

dt <- climate_flat %>% 
  tsibble::as_tsibble(key = id, index = date)
dt
#> # A tsibble: 155 x 10 [1D]
#> # Key:       id [5]
#>    id            lat  long  elev name        wmo_id date        prcp  tmax  tmin
#>    <chr>       <dbl> <dbl> <dbl> <chr>        <dbl> <date>     <dbl> <dbl> <dbl>
#>  1 ASN00009021 -31.9  116.  15.4 perth airp…  94610 2020-01-01     0  31.9  15.3
#>  2 ASN00009021 -31.9  116.  15.4 perth airp…  94610 2020-01-02     0  24.9  16.4
#>  3 ASN00009021 -31.9  116.  15.4 perth airp…  94610 2020-01-03     6  23.2  13  
#>  4 ASN00009021 -31.9  116.  15.4 perth airp…  94610 2020-01-04     0  28.4  12.4
#>  5 ASN00009021 -31.9  116.  15.4 perth airp…  94610 2020-01-05     0  35.3  11.6
#>  6 ASN00009021 -31.9  116.  15.4 perth airp…  94610 2020-01-06     0  34.8  13.1
#>  7 ASN00009021 -31.9  116.  15.4 perth airp…  94610 2020-01-07     0  32.8  15.1
#>  8 ASN00009021 -31.9  116.  15.4 perth airp…  94610 2020-01-08     0  30.4  17.4
#>  9 ASN00009021 -31.9  116.  15.4 perth airp…  94610 2020-01-09     0  28.7  17.3
#> 10 ASN00009021 -31.9  116.  15.4 perth airp…  94610 2020-01-10     0  32.6  15.8
#> # … with 145 more rows
…
