2. Creation and coercion • cubble
…
Two separate tables

stations
#> # A tibble: 3 × 6
#>   id           long   lat  elev name              wmo_id
#>   <chr>       <dbl> <dbl> <dbl> <chr>              <dbl>
#> 1 ASN00086038  145. -37.7  78.4 essendon airport   95866
#> 2 ASN00086077  145. -38.0  12.1 moorabbin airport  94870
#> 3 ASN00086282  145. -37.7 113.  melbourne airport  94866
meteo
#> # A tibble: 30 × 5
#>    id          date        prcp  tmax  tmin
#>    <chr>       <date>     <dbl> <dbl> <dbl>
#>  1 ASN00086038 2020-01-01     0  26.8  11  
#>  2 ASN00086038 2020-01-02     0  26.3  12.2
#>  3 ASN00086038 2020-01-03     0  34.5  12.7
#>  4 ASN00086038 2020-01-04     0  29.3  18.8
#>  5 ASN00086038 2020-01-05    18  16.1  12.5
#>  6 ASN00086038 2020-01-06   104  17.5  11.1
#>  7 ASN00086038 2020-01-07    14  20.7  12.1
#>  8 ASN00086038 2020-01-08     0  26.4  16.4
#>  9 ASN00086038 2020-01-09     0  33.1  17.4
#> 10 ASN00086038 2020-01-10     0  34    19.6
#> # ℹ 20 more rows
…
stations_sf
#> Simple feature collection with 3 features and 4 fields
#> Geometry type: POINT
#> Dimension:     XY
#> Bounding box:  xmin: 144.8321 ymin: -37.98 xmax: 145.0964 ymax: -37.6655
#> Geodetic CRS:  WGS 84
#> # A tibble: 3 × 5
#>   id           elev name              wmo_id            geometry
#> * <chr>       <dbl> <chr>              <dbl>         <POINT [°]>
#> 1 ASN00086038  78.4 essendon airport   95866 (144.9066 -37.7276)
#> 2 ASN00086077  12.1 moorabbin airport  94870   (145.0964 -37.98)
#> 3 ASN00086282 113.  melbourne airport  94866 (144.8321 -37.6655)
meteo_ts
#> # A tsibble: 30 x 5 [1D]
#> # Key:       id [3]
#>    id          date        prcp  tmax  tmin
#>    <chr>       <date>     <dbl> <dbl> <dbl>
#>  1 ASN00086038 2020-01-01     0  26.8  11  
#>  2 ASN00086038 2020-01-02     0  26.3  12.2
#>  3 ASN00086038 2020-01-03     0  34.5  12.7
#>  4 ASN00086038 2020-01-04     0  29.3  18.8
#>  5 ASN00086038 2020-01-05    18  16.1  12.5
#>  6 ASN00086038 2020-01-06   104  17.5  11.1
#>  7 ASN00086038 2020-01-07    14  20.7  12.1
#>  8 ASN00086038 2020-01-08     0  26.4  16.4
#>  9 ASN00086038 2020-01-09     0  33.1  17.4
#> 10 ASN00086038 2020-01-10     0  34    19.6
#> # ℹ 20 more rows
…
An sftime object

dt <- climate_flat %>%
  sf::st_as_sf(coords = c("long", "lat"), crs = sf::st_crs("OGC:CRS84")) %>%
  sftime::st_as_sftime()
dt
#> Spatiotemporal feature collection with 30 features and 7 fields
#> Geometry type: POINT
#> Dimension:     XY
#> Bounding box:  xmin: 144.8321 ymin: -37.98 xmax: 145.0964 ymax: -37.6655
#> Geodetic CRS:  WGS 84
#> Time column with classes: ''.
#> Ranging from 2020-01-01 to 2020-01-10.
#> # A tibble: 30 × 9
#>    id           elev name     wmo_id  prcp  tmax  tmin            geometry
#>  * <chr>       <dbl> <chr>     <dbl> <dbl> <dbl> <dbl>         <POINT [°]>
#>  1 ASN00086038  78.4 essendo…  95866     0  26.8  11   (144.9066 -37.7276)
#>  2 ASN00086038  78.4 essendo…  95866     0  26.3  12.2 (144.9066 -37.7276)
#>  3 ASN00086038  78.4 essendo…  95866     0  34.5  12.7 (144.9066 -37.7276)
#>  4 ASN00086038  78.4 essendo…  95866     0  29.3  18.8 (144.9066 -37.7276)
#>  5 ASN00086038  78.4 essendo…  95866    18  16.1  12.5 (144.9066 -37.7276)
#>  6 ASN00086038  78.4 essendo…  95866   104  17.5  11.1 (144.9066 -37.7276)
#>  7 ASN00086038  78.4 essendo…  95866    14  20.7  12.1 (144.9066 -37.7276)
#>  8 ASN00086038  78.4 essendo…  95866     0  26.4  16.4 (144.9066 -37.7276)
#>  9 ASN00086038  78.4 essendo…  95866     0  33.1  17.4 (144.9066 -37.7276)
#> 10 ASN00086038  78.4 essendo…  95866     0  34    19.6 (144.9066 -37.7276)
#> # ℹ 20 more rows
#> # ℹ 1 more variable: date <date>
…
