0. Import data as a cubble • cubble
…
A cubble from tsibble

If you have already got a tsibble object, with key and index registered, only coords needs to be specified to create a cubble:

dt
#> # A tsibble: 1,830 x 10 [1D]
#> # Key:       id [5]
#>    id            lat  long  elev name        wmo_id date        prcp  tmax  tmin
#>    <chr>       <dbl> <dbl> <dbl> <chr>        <dbl> <date>     <dbl> <dbl> <dbl>
#>  1 ASN00009021 -31.9  116.  15.4 perth airp…  94610 2020-01-01     0  31.9  15.3
#>  2 ASN00009021 -31.9  116.  15.4 perth airp…  94610 2020-01-02     0  24.9  16.4
#>  3 ASN00009021 -31.9  116.  15.4 perth airp…  94610 2020-01-03     6  23.2  13  
#>  4 ASN00009021 -31.9  116.  15.4 perth airp…  94610 2020-01-04     0  28.4  12.4
#>  5 ASN00009021 -31.9  116.  15.4 perth airp…  94610 2020-01-05     0  35.3  11.6
#>  6 ASN00009021 -31.9  116.  15.4 perth airp…  94610 2020-01-06     0  34.8  13.1
#>  7 ASN00009021 -31.9  116.  15.4 perth airp…  94610 2020-01-07     0  32.8  15.1
#>  8 ASN00009021 -31.9  116.  15.4 perth airp…  94610 2020-01-08     0  30.4  17.4
#>  9 ASN00009021 -31.9  116.  15.4 perth airp…  94610 2020-01-09     0  28.7  17.3
#> 10 ASN00009021 -31.9  116.  15.4 perth airp…  94610 2020-01-10     0  32.6  15.8
#> # … with 1,820 more rows
#> # ℹ Use `print(n = ...)` to see more rows
…
# a spatial sheet
cubble::stations
#> # A tibble: 5 × 6
#>   id            lat  long  elev name           wmo_id
#>   <chr>       <dbl> <dbl> <dbl> <chr>           <dbl>
#> 1 ASN00009021 -31.9  116.  15.4 perth airport   94610
#> 2 ASN00010311 -31.9  117. 179   york            94623
#> 3 ASN00010614 -32.9  117. 338   narrogin        94627
#> 4 ASN00014015 -12.4  131.  30.4 darwin airport  94120
#> 5 ASN00015131 -17.6  134. 220   elliott         94236

# a temporal sheet
cubble::climate
#> # A tibble: 1,830 × 5
#>    id          date        prcp  tmax  tmin
#>    <chr>       <date>     <dbl> <dbl> <dbl>
#>  1 ASN00009021 2020-01-01     0  31.9  15.3
#>  2 ASN00009021 2020-01-02     0  24.9  16.4
#>  3 ASN00009021 2020-01-03     6  23.2  13  
#>  4 ASN00009021 2020-01-04     0  28.4  12.4
#>  5 ASN00009021 2020-01-05     0  35.3  11.6
#>  6 ASN00009021 2020-01-06     0  34.8  13.1
#>  7 ASN00009021 2020-01-07     0  32.8  15.1
#>  8 ASN00009021 2020-01-08     0  30.4  17.4
#>  9 ASN00009021 2020-01-09     0  28.7  17.3
#> 10 ASN00009021 2020-01-10     0  32.6  15.8
#> # … with 1,820 more rows
#> # ℹ Use `print(n = ...)` to see more rows
…
