2. Data manipulation with cubble • cubble
…
The raw data (oz_climate) records daily precipitation and (maximum and minimum) temperature for 93 stations in a tibble format but it is messy:

oz_climate
#> # A tibble: 2,069,634 × 9
#>    station     date         lat  long elevation name           prcp  tmax  tmin
#>    <chr>       <date>     <dbl> <dbl>     <dbl> <chr>         <dbl> <dbl> <dbl>
#>  1 ASN00001019 1998-09-16 -14.3  127.        23 KALUMBURU, AS    NA    36    NA
#>  2 ASN00001019 1998-09-17 -14.3  127.        23 KALUMBURU, AS    NA    NA    22
#>  3 ASN00001019 1998-09-18 -14.3  127.        23 KALUMBURU, AS    NA    35    NA
#>  4 ASN00001019 1998-09-19 -14.3  127.        23 KALUMBURU, AS     0    36    22
#>  5 ASN00001019 1998-09-20 -14.3  127.        23 KALUMBURU, AS     0    35    22
#>  6 ASN00001019 1998-09-21 -14.3  127.        23 KALUMBURU, AS     0    36    22
#>  7 ASN00001019 1998-09-22 -14.3  127.        23 KALUMBURU, AS     0    36    23
#>  8 ASN00001019 1998-09-23 -14.3  127.        23 KALUMBURU, AS     0    37    25
#>  9 ASN00001019 1998-09-24 -14.3  127.        23 KALUMBURU, AS    NA    37    23
#> 10 ASN00001019 1998-09-25 -14.3  127.        23 KALUMBURU, AS     0    36    22
#> # … with 2,069,624 more rows
…
